Overlaying Population Genetic Metrics on Species Distribution Layer
…
Let’s look at each file quickly after importing it into R:

2.1 popinfo.txt File

This file contains all the identifying information on the study
populations. Ignore the distances as they are irrelevant to today’s
exercise. Each population has a three letter alphabetical code.

library(tidyverse)

popinfo <- read_tsv("popinfo.txt")

popinfo

# A tibble: 51 × 9
   pop   mahalDist southernEdgeDist Zone  Location                 State_Province NumInds Longitude Latitude
   <chr>     <dbl>            <dbl> <chr> <chr>                    <chr>            <dbl>     <dbl>    <dbl>
 1 CBI       44.4          1510509. Core  Cape_Breton_Island       NS                   8     -61.2     46.1
 2 CHL       12.6           619981. Edge  Chaffey's_Lock           ON                   7     -76.2     44.6
 3 CLK       12.9          1548461. Core  Cold_Lake                AB                  14    -110.      54.2
 4 CPL        8.35          695595. Core  Chapleau                 ON                  14     -83.3     47.5
 5 CYH       15.6          1121559. Edge  Cypress_Hills_Prov._Park SK                  11    -110.      49.6
 6 DCK       11.1          1027383. Core  Duck_Mountain            SK                  13    -102.      51.6
 7 DPR        8.48          725548. Core  Deep_River               ON                  14     -77.5     46.1
 8 FIS       31.6          1801245. Core  Fischells_River          NL                   9     -58.4     48.2
 9 FNO        8.70         2413069. Core  Fort_Nelson              BC                  15    -122.      58.5
10 GAM       16.8          1058415. Core  Matagami                 QC                  15     -77.4     49.5
# … with 41 more rows
# ℹ Use `print(n = ...)` to see more rows
…
2.3
Population Genetic Metric: Population Adaptive Index (PAI)

paisum814 <- read_tsv("paisum814.df")

paisum814

# A tibble: 51 × 2
   pop   pai_sum
   <chr>   <dbl>
 1 CBI     21.9 
 2 CHL     11.2 
 3 CLK     17.9 
 4 CPL      8.28
 5 CYH     16.3 
 6 DCK     16.3 
 7 DPR     10.4 
 8 FIS     21.9 
 9 FNO     13.3 
10 GAM      8.79
# … with 41 more rows
# ℹ Use `print(n = ...)` to see more rows
…
